…
### Which destination airport is the worst airport for arrival time?

This question was relatively easy to answer. All I had to do was group together all of the destinations of all flights and summarize the data by average arrival time. Then I arranged the data in descending order so that the destination with the highest average arrival delay time was placed at the top. 

The Columbia Metropolitan Airport has the highest average arrival delay time out of all the destinations in the data. 


```r
q3 <- group_by(flights, dest)
summ3 <- summarise(q3, avg_delay = mean(arr_delay, na.rm = TRUE))
arrange(summ3, desc(avg_delay))
```

```
# A tibble: 105 x 2
    dest avg_delay
   <chr>     <dbl>
 1   CAE  41.76415
 2   TUL  33.65986
 3   OKC  30.61905
 4   JAC  28.09524
 5   TYS  24.06920
 6   MSN  20.19604
 7   RIC  20.11125
 8   CAK  19.69834
 9   DSM  19.00574
10   GRR  18.18956
# ... with 95 more rows
```
…
### Which destination airport is the worst airport for arrival time?


```r
q3 <- group_by(flights, dest)
summ3 <- summarise(q3, avg_delay = mean(arr_delay, na.rm = TRUE))
arrange(summ3, desc(avg_delay))
```

```
# A tibble: 105 x 2
    dest avg_delay
   <chr>     <dbl>
 1   CAE  41.76415
 2   TUL  33.65986
 3   OKC  30.61905
 4   JAC  28.09524
 5   TYS  24.06920
 6   MSN  20.19604
 7   RIC  20.11125
 8   CAK  19.69834
 9   DSM  19.00574
10   GRR  18.18956
# ... with 95 more rows
```
…
